<?xml version="1.0" encoding="utf-8"?>
<!DOCTYPE svg PUBLIC "-//W3C//DTD SVG 1.1//EN" "http://www.w3.org/Graphics/SVG/1.1/DTD/svg11.dtd">
<svg  version="1.1" id="Layer_1" xmlns="http://www.w3.org/2000/svg" xmlns:xlink="http://www.w3.org/1999/xlink" width="687" height="552" viewBox="0 0 687 552"
	 overflow="visible" enable-background="new 0 0 687 552" xml:space="preserve">
<g>
	<polyline fill="none" stroke="#6687A5" stroke-width="1.5" stroke-miterlimit="10" points="535.588,228.174 535.588,228.174
		432.51,125.096 	"/>
	<polyline fill="none" stroke="#6687A5" stroke-width="1.5" stroke-miterlimit="10" points="329.436,228.174 329.436,228.174
		432.51,125.096 	"/>
	<polyline fill="none" stroke="#6687A5" stroke-width="1.5" stroke-miterlimit="10" points="432.51,331.252 432.51,331.252
		535.588,228.174 	"/>
	<polyline fill="none" stroke="#6687A5" stroke-width="1.5" stroke-miterlimit="10" points="432.51,331.252 432.51,331.252
		329.436,228.174 	"/>
	<polyline fill="none" stroke="#6687A5" stroke-width="1.5" stroke-miterlimit="10" points="396.189,30.854 396.189,30.854
		432.51,125.096 	"/>
	<polyline fill="none" stroke="#6687A5" stroke-width="1.5" stroke-miterlimit="10" points="612.166,246.83 612.166,246.83
		535.588,228.174 	"/>
	<polyline fill="none" stroke="#6687A5" stroke-width="1.5" stroke-miterlimit="10" points="180.217,246.83 180.217,246.83
		329.436,228.174 	"/>

	<polyline fill="none" stroke="#6687A5" stroke-width="1.5" stroke-miterlimit="10" points="396.189,462.799 396.189,462.799
		432.51,331.252 	"/>
	<polyline fill="none" stroke="#6687A5" stroke-width="1.5" stroke-miterlimit="10" points="129.463,153.955 129.463,153.955
		180.217,246.83 	"/>
	<polyline fill="none" stroke="#6687A5" stroke-width="1.5" stroke-miterlimit="10" points="129.463,380.729 129.463,380.729
		180.217,246.83 	"/>
	<polyline fill="none" stroke="#6687A5" stroke-width="1.5" stroke-miterlimit="10" points="469.619,494.119 469.619,494.119
		396.189,462.799 	"/>
	<polyline fill="none" stroke="#6687A5" stroke-width="1.5" stroke-miterlimit="10" points="242.85,494.119 242.85,494.119
		396.189,462.799 	"/>
	<polyline fill="none" stroke="#FFFFFF" stroke-width="8" stroke-miterlimit="10" points="312.076,51.314 312.076,51.314
		469.619,40.572 	"/>
	<polyline fill="none" stroke="#FFFFFF" stroke-width="8" stroke-miterlimit="10" points="550.783,290.025 550.783,290.025
		583.01,153.955 	"/>
	<polyline fill="none" stroke="#FFFFFF" stroke-width="8" stroke-miterlimit="10" points="388.994,315.221 388.994,315.221
		550.783,290.025 	"/>
	<polyline fill="none" stroke="#FFFFFF" stroke-width="8" stroke-miterlimit="10" points="388.994,315.221 388.994,315.221
		263.006,189.236 	"/>

	<polyline fill="none" stroke="#FFFFFF" stroke-width="8" stroke-miterlimit="10" points="137.021,315.221 137.021,315.221
		263.006,189.236 	"/>
	<polyline fill="none" stroke="#FFFFFF" stroke-width="8" stroke-miterlimit="10" points="263.006,441.205 263.006,441.205
		312.076,528.729 	"/>
	<polyline fill="none" stroke="#FFFFFF" stroke-width="8" stroke-miterlimit="10" points="263.006,441.205 263.006,441.205
		137.021,315.221 	"/>
	<polyline fill="none" stroke="#003368" stroke-width="2" stroke-miterlimit="10" points="469.619,40.572 469.619,40.572
		396.189,30.854 	"/>
	<polyline fill="none" stroke="#003368" stroke-width="2" stroke-miterlimit="10" points="242.85,40.572 242.85,40.572
		396.189,30.854 	"/>
	<polyline fill="none" stroke="#003368" stroke-width="2" stroke-miterlimit="10" points="583.01,153.955 583.01,153.955
		612.166,246.83 	"/>
	<polyline fill="none" stroke="#003368" stroke-width="2" stroke-miterlimit="10" points="583.01,153.955 583.01,153.955
		469.619,40.572 	"/>
	<polyline fill="none" stroke="#003368" stroke-width="2" stroke-miterlimit="10" points="129.463,153.955 129.463,153.955
		242.85,40.572 	"/>
	<polyline fill="none" stroke="#003368" stroke-width="2" stroke-miterlimit="10" points="583.01,380.729 583.01,380.729
		612.166,246.83 	"/>

	<polyline fill="none" stroke="#003368" stroke-width="2" stroke-miterlimit="10" points="469.619,494.119 469.619,494.119
		583.01,380.729 	"/>
	<polyline fill="none" stroke="#003368" stroke-width="2" stroke-miterlimit="10" points="242.85,494.119 242.85,494.119
		129.463,380.729 	"/>
	<polyline fill="none" stroke="#003368" stroke-width="2" stroke-miterlimit="10" points="312.076,51.314 312.076,51.314
		469.619,40.572 	"/>
	<polyline fill="none" stroke="#003368" stroke-width="2" stroke-miterlimit="10" points="312.076,51.314 312.076,51.314
		242.85,40.572 	"/>
	<polyline fill="none" stroke="#003368" stroke-width="2" stroke-miterlimit="10" points="550.783,290.025 550.783,290.025
		583.01,153.955 	"/>
	<polyline fill="none" stroke="#003368" stroke-width="2" stroke-miterlimit="10" points="550.783,290.025 550.783,290.025
		583.01,380.729 	"/>
	<polyline fill="none" stroke="#003368" stroke-width="2" stroke-miterlimit="10" points="73.369,290.025 73.369,290.025
		129.463,153.955 	"/>
	<polyline fill="none" stroke="#003368" stroke-width="2" stroke-miterlimit="10" points="73.369,290.025 73.369,290.025
		129.463,380.729 	"/>
	<polyline fill="none" stroke="#003368" stroke-width="2" stroke-miterlimit="10" points="312.076,528.729 312.076,528.729
		469.619,494.119 	"/>

	<polyline fill="none" stroke="#003368" stroke-width="2" stroke-miterlimit="10" points="312.076,528.729 312.076,528.729
		242.85,494.119 	"/>
	<polyline fill="none" stroke="#003368" stroke-width="2" stroke-miterlimit="10" points="263.006,189.236 263.006,189.236
		312.076,51.314 	"/>
	<polyline fill="none" stroke="#003368" stroke-width="2" stroke-miterlimit="10" points="388.994,315.221 388.994,315.221
		550.783,290.025 	"/>
	<polyline fill="none" stroke="#003368" stroke-width="2" stroke-miterlimit="10" points="388.994,315.221 388.994,315.221
		263.006,189.236 	"/>
	<polyline fill="none" stroke="#003368" stroke-width="2" stroke-miterlimit="10" points="137.021,315.221 137.021,315.221
		73.369,290.025 	"/>
	<polyline fill="none" stroke="#003368" stroke-width="2" stroke-miterlimit="10" points="137.021,315.221 137.021,315.221
		263.006,189.236 	"/>
	<polyline fill="none" stroke="#003368" stroke-width="2" stroke-miterlimit="10" points="263.006,441.205 263.006,441.205
		312.076,528.729 	"/>
	<polyline fill="none" stroke="#003368" stroke-width="2" stroke-miterlimit="10" points="263.006,441.205 263.006,441.205
		388.994,315.221 	"/>
	<polyline fill="none" stroke="#003368" stroke-width="2" stroke-miterlimit="10" points="263.006,441.205 263.006,441.205
		137.021,315.221 	"/>

	<g>
		<text transform="matrix(1 0 0 1 340.7559 20.1201)" font-family="Liberation Serif" font-style="normal" font-size="18">(4,1,2,3)</text>
	</g>
	<g>
		<text transform="matrix(1 0 0 1 474.7559 38.1201)" font-family="Liberation Serif" font-style="normal" font-size="18">(4,2,1,3)</text>
	</g>
	<g>
		<text transform="matrix(1 0 0 1 314.7559 69.1201)" font-family="Liberation Serif" font-style="normal" font-size="18">(3,2,1,4)</text>

	</g>
	<g>
		<text transform="matrix(1 0 0 1 187.7559 33.1201)" font-family="Liberation Serif" font-style="normal" font-size="18">(3,1,2,4)</text>
	</g>
	<g>
		<text transform="matrix(1 0 0 1 63.7559 151.1201)" font-family="Liberation Serif" font-style="normal" font-size="18">(2,1,3,4)</text>
	</g>
	<g>

		<text transform="matrix(1 0 0 1 7.7559 299.1201)" font-family="Liberation Serif" font-style="normal" font-size="18">(1,2,3,4)</text>
	</g>
	<g>
		<text transform="matrix(1 0 0 1 63.7559 392.1201)" font-family="Liberation Serif" font-style="normal" font-size="18">(1,2,4,3)</text>
	</g>
	<g>
		<text transform="matrix(1 0 0 1 151.7559 319.1201)" font-family="Liberation Serif" font-style="normal" font-size="18">(1,3,2,4)</text>

	</g>
	<g>
		<text transform="matrix(1 0 0 1 112.7559 253.1201)" font-family="Liberation Serif" font-style="normal" font-size="18">(2,1,4,3)</text>
	</g>
	<g>
		<text transform="matrix(1 0 0 1 195.7559 187.1201)" font-family="Liberation Serif" font-style="normal" font-size="18">(2,3,1,4)</text>
	</g>
	<g>

		<text transform="matrix(1 0 0 1 342.7559 232.1201)" font-family="Liberation Serif" font-style="normal" font-size="18">(3,1,4,2)</text>
	</g>
	<g>
		<text transform="matrix(1 0 0 1 362.7559 126.1201)" font-family="Liberation Serif" font-style="normal" font-size="18">(4,1,3,2)</text>
	</g>
	<g>
		<text transform="matrix(1 0 0 1 463.7559 233.1201)" font-family="Liberation Serif" font-style="normal" font-size="18">(4,2,3,1)</text>

	</g>
	<g>
		<text transform="matrix(1 0 0 1 440.7559 344.1201)" font-family="Liberation Serif" font-style="normal" font-size="18">(3,2,4,1)</text>
	</g>
	<g>
		<text transform="matrix(1 0 0 1 315.7559 320.1201)" font-family="Liberation Serif" font-style="normal" font-size="18">(2,4,1,3)</text>
	</g>
	<g>

		<text transform="matrix(1 0 0 1 277.7559 447.1201)" font-family="Liberation Serif" font-style="normal" font-size="18">(1,4,2,3)</text>
	</g>
	<g>
		<text transform="matrix(1 0 0 1 173.7559 505.1201)" font-family="Liberation Serif" font-style="normal" font-size="18">(1,3,4,2)</text>
	</g>
	<g>
		<text transform="matrix(1 0 0 1 404.7559 460.1201)" font-family="Liberation Serif" font-style="normal" font-size="18">(2,3,4,1)</text>

	</g>
	<g>
		<text transform="matrix(1 0 0 1 293.7559 543.1201)" font-family="Liberation Serif" font-style="normal" font-size="18">(1,4,3,2)</text>
	</g>
	<g>
		<text transform="matrix(1 0 0 1 474.7559 507.1201)" font-family="Liberation Serif" font-style="normal" font-size="18">(2,4,3,1)</text>
	</g>
	<g>

		<text transform="matrix(1 0 0 1 584.7559 394.1201)" font-family="Liberation Serif" font-style="normal" font-size="18">(3,4,2,1)</text>
	</g>
	<g>
		<text transform="matrix(1 0 0 1 617.7559 248.1201)" font-family="Liberation Serif" font-style="normal" font-size="18">(4,3,2,1)</text>
	</g>
	<g>
		<text transform="matrix(1 0 0 1 590.7559 156.1201)" font-family="Liberation Serif" font-style="normal" font-size="18">(4,3,1,2)</text>

	</g>
	<g>
		<text transform="matrix(1 0 0 1 558.7559 295.1201)" font-family="Liberation Serif" font-style="normal" font-size="18">(3,4,1,2)</text>
	</g>
</g>
<rect fill="none" width="687" height="552"/>
</svg>
